…
#   verified <lgl>, profile_url <chr>,
#   profile_expanded_url <chr>, account_lang <lgl>,
#   profile_banner_url <chr>, profile_background_url <chr>,
#   profile_image_url <chr>
> #how many locales repped 
> length(unique(users$location))
[1] 305
> users %% 
+ ggplot(aes(location)) + geom_bar() + coord_flip() + labs(x = "Count", y = "Location", title = "Birds and their tweetation patterns")
Error in ggplot(aes(location)) : could not find function "ggplot"
> users %>%
+ ggplot(aes(location)) + geom_bar() + coord_flip() + labs(x = "Count", y = "Location", title = "Twitter users - unique locations")
Error in ggplot(., aes(location)) : could not find function "ggplot"
> users 
# A tibble: 500 x 90
   user_id status_id created_at          screen_name text 
   <chr>   <chr>     <dttm>              <chr>       <chr>
 1 101181… 12018411… 2019-12-03 12:30:22 rstatstweet "@ur…
 2 107501… 12018401… 2019-12-03 12:26:26 rstats4ds   "Nee…
 3 559211… 11941272… 2019-11-12 05:38:11 Rstats4Econ Don'…
 4 217041… 11989451… 2019-11-25 12:42:44 BaseballRs… Mult…
 5 824037… 11983125… 2019-11-23 18:49:08 LIRRstats   Desp…
 6 115367… 11991408… 2019-11-26 01:40:26 steelRstats ESPN…
 7 355503… 12018134… 2019-12-03 10:40:29 GISStackEx… How …
 8 115890… 11762262… 2019-09-23 20:06:12 BuccaneeRs… Much…
 9 115929… 11747309… 2019-09-19 17:04:27 RavensRsta… "I'v…
10 115817… 11595007… 2019-08-08 16:24:54 BostonRSta… "@Ca…
# … with 490 more rows, and 85 more variables:
#   source <chr>, display_text_width <dbl>,
#   reply_to_status_id <chr>, reply_to_user_id <chr>,
#   reply_to_screen_name <chr>, is_quote <lgl>,
#   is_retweet <lgl>, favorite_count <int>,
#   retweet_count <int>, quote_count <int>,
#   reply_count <int>, hashtags <list>, symbols <list>,
#   urls_url <list>, urls_t.co <list>,
#   urls_expanded_url <list>, media_url <list>,
…
